Generalized additive models and gratia
…
[File format](https://www.metoffice.gov.uk/hadobs/hadcrut4/data/current/series_format.html)

---

# HadCRUT data set

```r
gtemp
```

```
## # A tibble: 172 × 2
##     Year Temperature
##    <dbl>       <dbl>
##  1  1850      -0.336
##  2  1851      -0.159
##  3  1852      -0.107
##  4  1853      -0.177
##  5  1854      -0.071
##  6  1855      -0.19 
##  7  1856      -0.378
##  8  1857      -0.405
##  9  1858      -0.4  
## 10  1859      -0.215
## # ℹ 162 more rows
```
…
<img src="index_files/figure-html/m2-draw-1.svg" style="display: block; margin: auto;" />

---

# Ocean chlorophyl-*a*

```r
m1 |>
  smooth_estimates(select = "s(lat,lon)", n = 50) |>
  add_confint()
```

```
## # A tibble: 2,500 × 9
##    .smooth    .type .by   .estimate   .se   lat   lon .lower_ci .upper_ci
##    <chr>      <chr> <chr>     <dbl> <dbl> <dbl> <dbl>     <dbl>     <dbl>
##  1 s(lat,lon) SOS   <NA>     0.0770 0.247  30.2 -79.9    -0.407     0.561
##  2 s(lat,lon) SOS   <NA>     0.0603 0.199  30.2 -76.6    -0.330     0.450
##  3 s(lat,lon) SOS   <NA>    -0.178  0.223  30.2 -73.3    -0.616     0.259
##  4 s(lat,lon) SOS   <NA>    -0.615  0.257  30.2 -70.1    -1.12     -0.110
##  5 s(lat,lon) SOS   <NA>    -0.948  0.260  30.2 -66.8    -1.46     -0.438
##  6 s(lat,lon) SOS   <NA>    -1.13   0.307  30.2 -63.5    -1.73     -0.531
##  7 s(lat,lon) SOS   <NA>    -1.62   0.410  30.2 -60.2    -2.42     -0.817
##  8 s(lat,lon) SOS   <NA>    -1.73   0.411  30.2 -56.9    -2.54     -0.928
##  9 s(lat,lon) SOS   <NA>    -1.79   0.369  30.2 -53.6    -2.51     -1.07 
## 10 s(lat,lon) SOS   <NA>    -1.87   0.338  30.2 -50.4    -2.53     -1.20 
## # ℹ 2,490 more rows
```
…
Provide `newdata` with a data frame of values of covariates

---

# `predict()`

```r
new_year <- with(shrimp, tibble(year = seq(min(year), max(year), length.out = 100)))
pred <- predict(m_rich, newdata = new_year, se.fit = TRUE, type = 'link')
pred <- bind_cols(new_year, as_tibble(as.data.frame(pred)))
pred
```

```
## # A tibble: 100 × 3
##     year   fit  se.fit
##    <dbl> <dbl>   <dbl>
##  1 2005   3.05 0.0100 
##  2 2005.  3.05 0.00901
##  3 2005.  3.06 0.00830
##  4 2005.  3.06 0.00792
##  5 2005.  3.06 0.00786
##  6 2005.  3.06 0.00807
##  7 2006.  3.07 0.00844
##  8 2006.  3.07 0.00887
##  9 2006.  3.07 0.00926
## 10 2006.  3.08 0.00955
## # ℹ 90 more rows
```

---

# `predict()` &rarr; response scale

```
## # A tibble: 100 × 6
##     year   fit  se.fit richness   lwr   upr
##    <dbl> <dbl>   <dbl>    <dbl> <dbl> <dbl>
##  1 2005   3.05 0.0100      21.1  20.8  21.4
##  2 2005.  3.05 0.00901     21.2  20.9  21.5
##  3 2005.  3.06 0.00830     21.2  20.9  21.5
##  4 2005.  3.06 0.00792     21.3  21.0  21.6
##  5 2005.  3.06 0.00786     21.4  21.1  21.6
##  6 2005.  3.06 0.00807     21.4  21.1  21.7
##  7 2006.  3.07 0.00844     21.5  21.2  21.8
##  8 2006.  3.07 0.00887     21.6  21.3  21.9
##  9 2006.  3.07 0.00926     21.6  21.3  22.0
## 10 2006.  3.08 0.00955     21.7  21.4  22.0
## # ℹ 90 more rows
```
…
# `predict()` for space and time

This idea is very general;  spatiotemporal model needs a grid of x,y coordinates for each year

```r
sp_new <- with(shrimp, expand.grid(x = evenly(x, n = 100), y = evenly(y, n = 100),
                                   year = unique(year)))
sp_pred <- predict(m_spt, newdata = sp_new, se.fit = TRUE) # link scale is default
sp_pred <- bind_cols(as_tibble(sp_new), as_tibble(as.data.frame(sp_pred)))
sp_pred
```

```
## # A tibble: 100,000 × 5
##          x        y  year   fit se.fit
##      <dbl>    <dbl> <dbl> <dbl>  <dbl>
##  1 428238. 5078244.  2005  3.34  1.06 
##  2 436886. 5078244.  2005  3.32  1.06 
##  3 445535. 5078244.  2005  3.31  1.05 
##  4 454183. 5078244.  2005  3.29  1.04 
##  5 462831. 5078244.  2005  3.26  1.03 
##  6 471479. 5078244.  2005  3.24  1.02 
##  7 480127. 5078244.  2005  3.21  1.01 
##  8 488775. 5078244.  2005  3.18  1.00 
##  9 497423. 5078244.  2005  3.15  0.994
## 10 506071. 5078244.  2005  3.12  0.985
## # ℹ 99,990 more rows
```
---

# `predict()` &rarr; response scale

```r
ilink <- inv_link(m_spt)
too_far <- exclude.too.far(sp_pred$x, sp_pred$y, shrimp$x, shrimp$y, dist = 0.1)
sp_pred <- sp_pred %>% mutate(biomass = ilink(fit),
                              biomass = case_when(too_far ~ NA_real_,
                                                  TRUE ~ biomass))
sp_pred
```

```
## # A tibble: 100,000 × 6
##          x        y  year   fit se.fit biomass
##      <dbl>    <dbl> <dbl> <dbl>  <dbl>   <dbl>
##  1 428238. 5078244.  2005  3.34  1.06     28.3
##  2 436886. 5078244.  2005  3.32  1.06     27.8
##  3 445535. 5078244.  2005  3.31  1.05     27.3
##  4 454183. 5078244.  2005  3.29  1.04     26.7
##  5 462831. 5078244.  2005  3.26  1.03     26.1
##  6 471479. 5078244.  2005  3.24  1.02     25.5
##  7 480127. 5078244.  2005  3.21  1.01     24.9
##  8 488775. 5078244.  2005  3.18  1.00     24.2
##  9 497423. 5078244.  2005  3.15  0.994    23.4
## 10 506071. 5078244.  2005  3.12  0.985    22.6
## # ℹ 99,990 more rows
```
…
